<?xml version="1.0" encoding="UTF-8" standalone="no"?>
<svg
   xmlns:dc="http://purl.org/dc/elements/1.1/"
   xmlns:cc="http://creativecommons.org/ns#"
   xmlns:rdf="http://www.w3.org/1999/02/22-rdf-syntax-ns#"
   xmlns:svg="http://www.w3.org/2000/svg"
   xmlns="http://www.w3.org/2000/svg"
   xmlns:sodipodi="http://sodipodi.sourceforge.net/DTD/sodipodi-0.dtd"
   xmlns:inkscape="http://www.inkscape.org/namespaces/inkscape"
   width="261.66406pt"
   height="75.113281pt"
   viewBox="0 0 261.66406 75.113284"
   version="1.1"
   id="svg2"
   inkscape:version="0.91 r13725"
   sodipodi:docname="GNZK_ru_logo_gor.svg">
  <metadata
     id="metadata165">
    <rdf:RDF>
      <cc:Work
         rdf:about="">
        <dc:format>image/svg+xml</dc:format>
        <dc:type
           rdf:resource="http://purl.org/dc/dcmitype/StillImage" />
        <dc:title></dc:title>
      </cc:Work>
    </rdf:RDF>
  </metadata>
  <defs
     id="defs163" />
  <sodipodi:namedview
     pagecolor="#ffffff"
     bordercolor="#666666"
     borderopacity="1"
     objecttolerance="10"
     gridtolerance="10"
     guidetolerance="10"
     inkscape:pageopacity="0"
     inkscape:pageshadow="2"
     inkscape:window-width="1301"
     inkscape:window-height="745"
     id="namedview161"
     showgrid="false"
     fit-margin-top="0"
     fit-margin-left="0"
     fit-margin-right="0"
     fit-margin-bottom="0"
     inkscape:zoom="0.30274557"
     inkscape:cx="-33.939399"
     inkscape:cy="-82.256469"
     inkscape:window-x="57"
     inkscape:window-y="-8"
     inkscape:window-maximized="1"
     inkscape:current-layer="svg2" />
  <g
     id="surface163"
     transform="translate(-462.26953,-170.89453)">
    <path
       style="fill:#636668;fill-opacity:1;fill-rule:nonzero;stroke:none"
       d="m 579.67187,177.44531 0,30.77344 -7.50781,0 0,-37.32422 24.21875,0 0,6.55078 z m 0,0"
       id="path5"
       inkscape:connector-curvature="0" />
    <path
       style="fill:#636668;fill-opacity:1;fill-rule:nonzero;stroke:none"
       d="m 625.60937,208.21484 0,-15.89843 -14.87109,0 0,15.89843 -7.50781,0 0,-37.32031 7.50781,0 0,14.87109 14.87109,0 0,-14.87109 7.50782,0 0,37.32031 z m 0,0"
       id="path7"
       inkscape:connector-curvature="0" />
    <path
       style="fill:#636668;fill-opacity:1;fill-rule:nonzero;stroke:none"
       d="m 673.01562,214.78516 0,-6.56641 -27.97265,0 0,-37.32422 7.50781,0 0,30.76953 14.87109,0 0,-30.76953 7.50782,0 0,30.76953 5.30078,0 0,13.1211 z m 0,0"
       id="path9"
       inkscape:connector-curvature="0" />
    <path
       style="fill:#636668;fill-opacity:1;fill-rule:nonzero;stroke:none"
       d="m 688.39844,208.21484 0,-37.32031 7.58203,0 0,17.8125 14.20703,-17.8125 8.98437,0 -14.87109,17.51953 15.97266,19.80078 -9.19922,0 -15.09375,-19.35937 0,19.35937 z m 0,0"
       id="path11"
       inkscape:connector-curvature="0" />
    <path
       style="fill:#30547a;fill-opacity:1;fill-rule:nonzero;stroke:none"
       d="m 480.67578,227.26953 -2.96875,0 0,-45.50781 2.96875,0 z m 0,0"
       id="path13"
       inkscape:connector-curvature="0" />
    <path
       style="fill:#6697cf;fill-opacity:1;fill-rule:nonzero;stroke:none"
       d="m 486.61328,226.27344 -2.96875,0.375 0,-44.58985 2.96875,0.2461 z m 0,0"
       id="path15"
       inkscape:connector-curvature="0" />
    <path
       style="fill:#6697cf;fill-opacity:1;fill-rule:nonzero;stroke:none"
       d="m 492.55078,196.59375 -2.96875,0.29297 0,-14.33985 2.96875,0.26954 z m 0,0"
       id="path17"
       inkscape:connector-curvature="0" />
    <path
       style="fill:#6697cf;fill-opacity:1;fill-rule:nonzero;stroke:none"
       d="m 498.48828,196.00781 -2.96875,0.36328 0,-13.42968 2.96875,0.17187 z m 0,0"
       id="path19"
       inkscape:connector-curvature="0" />
    <path
       style="fill:#6697cf;fill-opacity:1;fill-rule:nonzero;stroke:none"
       d="m 504.42969,195.41406 -2.97266,0.2461 0,-12.14063 2.97266,0.24609 z m 0,0"
       id="path21"
       inkscape:connector-curvature="0" />
    <path
       style="fill:#6697cf;fill-opacity:1;fill-rule:nonzero;stroke:none"
       d="m 510.36719,194.82031 -2.96875,0.30078 0,-11.10937 3.18359,0.25781 z m 0,0"
       id="path23"
       inkscape:connector-curvature="0" />
    <path
       style="fill:#6697cf;fill-opacity:1;fill-rule:nonzero;stroke:none"
       d="m 516.51953,194.94531 -2.96875,-0.14844 0,-10.30078 2.96875,0.2461 z m 0,0"
       id="path25"
       inkscape:connector-curvature="0" />
    <path
       style="fill:#6697cf;fill-opacity:1;fill-rule:nonzero;stroke:none"
       d="m 522.45703,195.35156 -2.96875,-0.1914 0,-10.17579 2.96875,0.2461 z m 0,0"
       id="path27"
       inkscape:connector-curvature="0" />
    <path
       style="fill:#6697cf;fill-opacity:1;fill-rule:nonzero;stroke:none"
       d="m 528.39453,195.72266 -2.96875,-0.20313 0,-10.08594 2.96875,0.25782 z m 0,0"
       id="path29"
       inkscape:connector-curvature="0" />
    <path
       style="fill:#30547a;fill-opacity:1;fill-rule:nonzero;stroke:none"
       d="m 472.95703,226.80469 -2.96875,-0.28125 0,-44.10547 2.96875,-0.23047 z m 0,0"
       id="path31"
       inkscape:connector-curvature="0" />
    <path
       style="fill:#30547a;fill-opacity:1;fill-rule:nonzero;stroke:none"
       d="m 465.23828,226.08203 -2.96875,-0.27344 0,-42.78125 2.96875,-0.25781 z m 0,0"
       id="path33"
       inkscape:connector-curvature="0" />
    <path
       style="fill:#919191;fill-opacity:1;fill-rule:nonzero;stroke:none"
       d="m 542.67578,231.625 -2.97266,0.40625 0,-32.8125 2.97266,0.26172 z m 0,0"
       id="path35"
       inkscape:connector-curvature="0" />
    <path
       style="fill:#919191;fill-opacity:1;fill-rule:nonzero;stroke:none"
       d="m 537.32031,232.29687 -2.96875,0.41407 0,-33.94532 2.96875,0.1836 z m 0,0"
       id="path37"
       inkscape:connector-curvature="0" />
    <path
       style="fill:#919191;fill-opacity:1;fill-rule:nonzero;stroke:none"
       d="m 531.36328,233.02344 -2.96875,0.41406 0,-35.16016 2.96875,0.17969 z m 0,0"
       id="path39"
       inkscape:connector-curvature="0" />
    <path
       style="fill:#919191;fill-opacity:1;fill-rule:nonzero;stroke:none"
       d="m 525.42578,233.82031 -2.96875,0.41406 0,-36.32812 2.96875,0.17969 z m 0,0"
       id="path41"
       inkscape:connector-curvature="0" />
    <path
       style="fill:#919191;fill-opacity:1;fill-rule:nonzero;stroke:none"
       d="m 519.48828,197.73437 0,36.91016 -2.96875,0.41406 0,-37.50781"
       id="path43"
       inkscape:connector-curvature="0" />
    <path
       style="fill:#636668;fill-opacity:1;fill-rule:nonzero;stroke:none"
       d="m 513.55078,197.19531 0,38.65235 -2.96875,0 0,-38.65235"
       id="path45"
       inkscape:connector-curvature="0" />
    <path
       style="fill:#636668;fill-opacity:1;fill-rule:nonzero;stroke:none"
       d="m 507.34375,197.55078 0,37.98438 -2.96875,-0.28125 0,-37.5"
       id="path47"
       inkscape:connector-curvature="0" />
    <path
       style="fill:#636668;fill-opacity:1;fill-rule:nonzero;stroke:none"
       d="m 501.40625,198.01172 0,36.97265 -2.96875,-0.29296 0,-36.4375"
       id="path49"
       inkscape:connector-curvature="0" />
    <path
       style="fill:#636668;fill-opacity:1;fill-rule:nonzero;stroke:none"
       d="m 495.46875,198.44531 0,35.96875 -2.96875,-0.28125 0,-35.40625"
       id="path51"
       inkscape:connector-curvature="0" />
    <path
       style="fill:#919191;fill-opacity:1;fill-rule:nonzero;stroke:none"
       d="m 572.16406,218.05859 4.19922,0 0,1.19532 -3.28125,0 0,8.9375 -0.91797,0 z m 0,0"
       id="path53"
       inkscape:connector-curvature="0" />
    <path
       style="fill:#919191;fill-opacity:1;fill-rule:nonzero;stroke:none"
       d="m 577.75,224.51953 c 0,0.94922 0.14062,1.65625 0.42969,2.12109 0.28906,0.46485 0.64453,0.69532 1.07422,0.69532 0.39843,0 0.73828,-0.23438 1.02734,-0.70313 0.28516,-0.46875 0.42969,-1.17187 0.42969,-2.11328 0,-0.94531 -0.14453,-1.65234 -0.4336,-2.11719 -0.28906,-0.46093 -0.64453,-0.69531 -1.07031,-0.69531 -0.40234,0 -0.75,0.23438 -1.03125,0.69922 -0.28516,0.46875 -0.42578,1.17187 -0.42578,2.11328 m -0.87109,0.004 c 0,-1.26953 0.22265,-2.22657 0.66406,-2.8711 0.44531,-0.64453 1.00781,-0.96875 1.6875,-0.96875 0.66797,0 1.22656,0.32422 1.67578,0.96875 0.44922,0.64453 0.67578,1.57813 0.67578,2.79297 0,1.32031 -0.22266,2.30078 -0.66406,2.94531 -0.44141,0.64454 -1.00391,0.96875 -1.6875,0.96875 -0.67188,0 -1.23438,-0.32421 -1.67969,-0.97265 -0.44922,-0.64453 -0.67187,-1.60156 -0.67187,-2.86328"
       id="path55"
       inkscape:connector-curvature="0" />
    <path
       style="fill:#919191;fill-opacity:1;fill-rule:nonzero;stroke:none"
       d="m 585.86719,225.50391 0.83593,0.16015 c -0.0977,0.875 -0.33593,1.54297 -0.72656,2.00391 -0.38281,0.46094 -0.84765,0.6914 -1.39062,0.6914 -0.65625,0 -1.19532,-0.32421 -1.6211,-0.97265 -0.42187,-0.64844 -0.63672,-1.60547 -0.63672,-2.8711 0,-1.27734 0.21485,-2.23437 0.64454,-2.875 0.42578,-0.63671 0.97656,-0.95703 1.64843,-0.95703 0.51953,0 0.95703,0.19532 1.3125,0.58203 0.35547,0.38672 0.58203,0.96875 0.6836,1.74219 l -0.82422,0.17969 c -0.082,-0.49609 -0.22266,-0.86719 -0.42188,-1.11328 -0.19922,-0.24219 -0.4414,-0.36719 -0.72265,-0.36719 -0.41797,0 -0.76172,0.22266 -1.03907,0.66797 -0.27343,0.44531 -0.41015,1.15234 -0.41015,2.11719 0,1.0039 0.13281,1.72656 0.39453,2.17187 0.26172,0.44922 0.59766,0.67188 1.01172,0.67188 0.32031,0 0.59765,-0.14844 0.82422,-0.44532 0.23047,-0.29687 0.375,-0.75781 0.4375,-1.38671"
       id="path57"
       inkscape:connector-curvature="0" />
    <path
       style="fill:#919191;fill-opacity:1;fill-rule:nonzero;stroke:none"
       d="m 587.39453,231.01953 -0.0937,-1.16797 c 0.1875,0.0742 0.35156,0.11328 0.48438,0.11328 0.17968,0 0.32812,-0.0469 0.44531,-0.13281 0.12109,-0.0898 0.21484,-0.22266 0.29297,-0.40625 0.0273,-0.0664 0.13672,-0.47266 0.33593,-1.22266 l -1.91015,-7.35156 0.91797,0 1.04687,4.25 c 0.13281,0.52735 0.25391,1.09375 0.36328,1.69922 0.0977,-0.57031 0.21094,-1.12891 0.34766,-1.67187 l 1.07031,-4.27735 0.85156,0 -1.90234,7.46485 c -0.25,0.96875 -0.44922,1.61718 -0.59375,1.9414 -0.14453,0.32422 -0.30469,0.5586 -0.48828,0.70313 -0.18359,0.14062 -0.39063,0.21093 -0.62109,0.21093 -0.16016,0 -0.34375,-0.0469 -0.54688,-0.15234"
       id="path59"
       inkscape:connector-curvature="0" />
    <path
       style="fill:#919191;fill-opacity:1;fill-rule:nonzero;stroke:none"
       d="m 593.65234,221.88281 c -0.0625,2.38672 -0.3164,4.14844 -0.75781,5.28516 l 2.69922,0 0,-5.28516 z m -0.70312,-1.03125 3.49219,0 0,6.31641 0.53906,0 0,3.10547 -0.69531,0 0,-2.08203 -3.94922,0 0,2.08203 -0.70313,0 0,-3.10547 0.44922,0 c 0.58984,-1.16797 0.87891,-3.27344 0.86719,-6.31641"
       id="path61"
       inkscape:connector-curvature="0" />
    <path
       style="fill:#919191;fill-opacity:1;fill-rule:nonzero;stroke:none"
       d="m 601.10156,224.50781 c -0.3125,0.1836 -0.77344,0.33985 -1.39062,0.46875 -0.35547,0.0742 -0.60547,0.16016 -0.75,0.25391 -0.14063,0.0937 -0.25,0.23047 -0.32813,0.40234 -0.0781,0.17188 -0.12109,0.3711 -0.12109,0.59766 0,0.35156 0.0898,0.6289 0.27344,0.83984 0.17968,0.21094 0.42968,0.3125 0.74609,0.3125 0.30469,0 0.58203,-0.0937 0.82812,-0.28125 0.2461,-0.1875 0.4336,-0.4414 0.5586,-0.75781 0.12109,-0.31641 0.18359,-0.77344 0.18359,-1.37891 z m 0.0664,2.78125 c -0.28125,0.35156 -0.57813,0.6211 -0.88672,0.80078 -0.30469,0.17969 -0.625,0.26953 -0.95313,0.26953 -0.52343,0 -0.9414,-0.1875 -1.2539,-0.5664 -0.3086,-0.37891 -0.46485,-0.88672 -0.46485,-1.52735 0,-0.42578 0.0742,-0.80078 0.21875,-1.1289 0.14454,-0.32813 0.34375,-0.58203 0.59766,-0.76563 0.25391,-0.1875 0.63672,-0.32031 1.15234,-0.41015 0.69141,-0.1211 1.19922,-0.26563 1.52344,-0.4336 l 0.004,-0.32031 c 0,-0.5 -0.0742,-0.85547 -0.22266,-1.05469 -0.21094,-0.29687 -0.53906,-0.44531 -0.97656,-0.44531 -0.39453,0 -0.69141,0.0977 -0.88672,0.29688 -0.19531,0.19531 -0.33984,0.5664 -0.42969,1.10937 l -0.83593,-0.16797 c 0.11718,-0.78906 0.35937,-1.36328 0.72265,-1.72265 0.36328,-0.35938 0.88281,-0.53907 1.5586,-0.53907 0.52343,0 0.9375,0.1211 1.23828,0.35547 0.30078,0.23828 0.48828,0.53516 0.5664,0.88281 0.0781,0.35157 0.11719,0.86329 0.11719,1.53516 l 0,1.66016 c 0,1.16015 0.0195,1.89062 0.0586,2.19531 0.0352,0.30078 0.10547,0.59375 0.21485,0.88281 l -0.88672,0 c -0.0898,-0.2539 -0.14844,-0.55859 -0.17578,-0.90625"
       id="path63"
       inkscape:connector-curvature="0" />
    <path
       style="fill:#919191;fill-opacity:1;fill-rule:nonzero;stroke:none"
       d="m 604.05859,224.5625 c 0,0.94922 0.12891,1.64844 0.39453,2.10156 0.26563,0.44922 0.58594,0.67188 0.96094,0.67188 0.35938,0 0.67578,-0.23047 0.94922,-0.69922 0.26953,-0.46485 0.40625,-1.1836 0.40625,-2.15625 0,-0.95703 -0.13281,-1.66797 -0.39844,-2.12891 -0.26172,-0.46094 -0.58593,-0.6914 -0.96484,-0.6914 -0.33984,0 -0.65234,0.24609 -0.92969,0.74218 -0.28125,0.4961 -0.41797,1.21485 -0.41797,2.16016 m -0.77343,6.44531 0,-10.15625 0.78125,0 0,0.95313 c 0.1914,-0.39453 0.40625,-0.6836 0.64062,-0.85547 0.23438,-0.17578 0.5,-0.26563 0.80469,-0.26563 0.39453,0 0.75,0.14063 1.07031,0.42188 0.31641,0.28125 0.57422,0.71094 0.76563,1.28515 0.19531,0.57032 0.29296,1.26172 0.29296,2.07032 0,1.25 -0.21875,2.21093 -0.65625,2.88672 -0.43359,0.67578 -0.94531,1.01171 -1.53515,1.01171 -0.26172,0 -0.50391,-0.082 -0.73047,-0.24218 -0.22656,-0.16016 -0.42188,-0.38672 -0.58984,-0.6836 l 0,3.57422 z m 0,0"
       id="path65"
       inkscape:connector-curvature="0" />
    <path
       style="fill:#919191;fill-opacity:1;fill-rule:nonzero;stroke:none"
       d="m 611.94922,225.50391 0.83594,0.16015 c -0.0977,0.875 -0.33594,1.54297 -0.72266,2.00391 -0.38672,0.46094 -0.85156,0.6914 -1.39063,0.6914 -0.66015,0 -1.19921,-0.32421 -1.625,-0.97265 -0.42187,-0.64844 -0.63671,-1.60547 -0.63671,-2.8711 0,-1.27734 0.21484,-2.23437 0.64453,-2.875 0.42578,-0.63671 0.97656,-0.95703 1.64843,-0.95703 0.51954,0 0.95704,0.19532 1.3125,0.58203 0.35547,0.38672 0.58204,0.96875 0.6836,1.74219 l -0.82422,0.17969 c -0.082,-0.49609 -0.22266,-0.86719 -0.42188,-1.11328 -0.19921,-0.24219 -0.4375,-0.36719 -0.71875,-0.36719 -0.41796,0 -0.76562,0.22266 -1.04296,0.66797 -0.27344,0.44531 -0.41016,1.15234 -0.41016,2.11719 0,1.0039 0.13281,1.72656 0.39453,2.17187 0.26172,0.44922 0.60156,0.67188 1.01172,0.67188 0.32422,0 0.59766,-0.14844 0.82812,-0.44532 0.22657,-0.29687 0.3711,-0.75781 0.4336,-1.38671"
       id="path67"
       inkscape:connector-curvature="0" />
    <path
       style="fill:#919191;fill-opacity:1;fill-rule:nonzero;stroke:none"
       d="m 613.05469,220.85156 4.07422,0 0,1.02735 -1.61329,0 0,6.3164 -0.84765,0 0,-6.3164 -1.61328,0 z m 0,0"
       id="path69"
       inkscape:connector-curvature="0" />
    <path
       style="fill:#919191;fill-opacity:1;fill-rule:nonzero;stroke:none"
       d="m 618.79297,227.17187 1.1289,0 c 0.48047,0 0.8125,-0.0898 0.9961,-0.26953 0.1875,-0.17578 0.27734,-0.45312 0.27734,-0.82422 0,-0.39843 -0.0937,-0.67968 -0.28906,-0.85546 -0.19531,-0.17188 -0.55078,-0.25782 -1.07031,-0.25782 l -1.04297,0 z m 0,-3.23046 0.91015,0 c 0.35938,0 0.60547,-0.0273 0.74219,-0.082 0.13672,-0.0547 0.25781,-0.16796 0.36719,-0.33593 0.10547,-0.16797 0.16016,-0.375 0.16016,-0.6211 0,-0.38672 -0.0937,-0.65234 -0.28516,-0.80078 -0.19141,-0.14844 -0.50781,-0.21875 -0.95703,-0.21875 l -0.9375,0 z m -0.84766,-3.08985 1.96094,0 c 0.44531,0 0.78516,0.0508 1.02344,0.15235 0.23437,0.10156 0.44922,0.30859 0.63281,0.625 0.1875,0.3164 0.28125,0.70703 0.28125,1.17187 0,0.69922 -0.20313,1.22266 -0.60547,1.57031 0.55078,0.29297 0.82813,0.88282 0.82813,1.76953 0,0.56641 -0.14063,1.05079 -0.42188,1.45313 -0.27734,0.39844 -0.75781,0.59766 -1.43359,0.59766 l -2.26563,0 z m 0,0"
       id="path71"
       inkscape:connector-curvature="0" />
    <path
       style="fill:#919191;fill-opacity:1;fill-rule:nonzero;stroke:none"
       d="m 623.71094,223.81641 2.79687,0 c -0.0351,-0.63672 -0.15234,-1.10938 -0.33984,-1.42188 -0.26953,-0.45703 -0.61719,-0.6875 -1.04297,-0.6875 -0.37891,0 -0.70313,0.19141 -0.97266,0.57031 -0.26953,0.38282 -0.41797,0.89453 -0.4414,1.53907 m 2.79297,2.01171 0.875,0.16016 c -0.14454,0.78516 -0.41016,1.375 -0.79297,1.77344 -0.38282,0.39844 -0.85547,0.59765 -1.41797,0.59765 -0.71094,0 -1.28516,-0.32421 -1.72656,-0.97265 -0.44141,-0.64844 -0.66016,-1.58203 -0.66016,-2.80078 0,-1.26953 0.22266,-2.23438 0.66406,-2.90235 0.44531,-0.66406 1.00781,-1 1.6875,-1 0.64844,0 1.19141,0.32813 1.625,0.98438 0.4336,0.65234 0.64844,1.60156 0.64844,2.83984 l -0.004,0.33203 -3.74609,0 c 0.0352,0.82422 0.19531,1.44922 0.48047,1.86719 0.28125,0.42188 0.6289,0.62891 1.03515,0.62891 0.63672,0 1.08204,-0.5 1.33204,-1.50782"
       id="path73"
       inkscape:connector-curvature="0" />
    <path
       style="fill:#919191;fill-opacity:1;fill-rule:nonzero;stroke:none"
       d="m 628.46875,220.85156 0.84766,0 0,3.05469 2.35937,0 0,-3.05469 0.84766,0 0,7.34375 -0.84766,0 0,-3.25781 -2.35937,0 0,3.25781 -0.84766,0 z m 0,0"
       id="path75"
       inkscape:connector-curvature="0" />
    <path
       style="fill:#919191;fill-opacity:1;fill-rule:nonzero;stroke:none"
       d="m 633.80859,220.85156 0.84766,0 0,3.05469 2.36328,0 0,-3.05469 0.84766,0 0,7.34375 -0.84766,0 0,-3.25781 -2.36328,0 0,3.25781 -0.84766,0 z m 0,0"
       id="path77"
       inkscape:connector-curvature="0" />
    <path
       style="fill:#919191;fill-opacity:1;fill-rule:nonzero;stroke:none"
       d="m 644.10156,220.85156 0.84375,0 0,7.34375 -0.84375,0 z m -4.11719,6.32031 0.89454,0 c 0.64843,0 1.0625,-0.125 1.23828,-0.375 0.17968,-0.25 0.26562,-0.52734 0.26562,-0.82421 0,-0.39454 -0.10156,-0.69922 -0.30469,-0.91016 -0.20312,-0.21094 -0.5664,-0.32031 -1.08203,-0.32031 l -1.01172,0 z m -0.84375,-6.32031 0.84375,0 0,2.86719 1.08204,0 c 0.77734,0 1.33203,0.21875 1.67578,0.66016 0.33984,0.4375 0.51172,0.96484 0.51172,1.58984 0,0.58984 -0.15625,1.10547 -0.46485,1.55469 -0.30859,0.44531 -0.8164,0.66797 -1.52734,0.66797 l -2.1211,0 z m 0,0"
       id="path79"
       inkscape:connector-curvature="0" />
    <path
       style="fill:#919191;fill-opacity:1;fill-rule:nonzero;stroke:none"
       d="m 649.19922,218.07031 0.58203,0 c -0.0508,0.59766 -0.19922,1.04297 -0.44922,1.34375 -0.25,0.29688 -0.56641,0.44922 -0.94922,0.44922 -0.38672,0 -0.70312,-0.15234 -0.94922,-0.44922 -0.25,-0.30078 -0.39843,-0.74609 -0.44531,-1.34375 l 0.57813,0 c 0.0898,0.625 0.35546,0.9336 0.79296,0.9336 0.24219,0 0.4336,-0.0742 0.57032,-0.21875 0.13281,-0.14844 0.22265,-0.38672 0.26953,-0.71485 m -2.85156,2.78125 0.84765,0 0,5.58594 2.35938,-5.58594 0.91797,0 0,7.34375 -0.84766,0 0,-5.55859 -2.36328,5.55859 -0.91406,0 z m 0,0"
       id="path81"
       inkscape:connector-curvature="0" />
    <path
       style="fill:#919191;fill-opacity:1;fill-rule:nonzero;stroke:none"
       d="m 654.52344,228.19531 0,-10.13672 0.91406,0 0,4.16016 3.60156,0 0,-4.16016 0.91797,0 0,10.13672 -0.91797,0 0,-4.78125 -3.60156,0 0,4.78125 z m 0,0"
       id="path83"
       inkscape:connector-curvature="0" />
    <path
       style="fill:#919191;fill-opacity:1;fill-rule:nonzero;stroke:none"
       d="m 664.58984,224.50781 c -0.3125,0.1836 -0.77343,0.33985 -1.39062,0.46875 -0.35547,0.0742 -0.60547,0.16016 -0.75,0.25391 -0.14063,0.0937 -0.25,0.23047 -0.32813,0.40234 -0.0781,0.17188 -0.12109,0.3711 -0.12109,0.59766 0,0.35156 0.0937,0.6289 0.27344,0.83984 0.17968,0.21094 0.42968,0.3125 0.75,0.3125 0.30078,0 0.57812,-0.0937 0.82422,-0.28125 0.25,-0.1875 0.43359,-0.4414 0.55859,-0.75781 0.12109,-0.31641 0.18359,-0.77344 0.18359,-1.37891 z m 0.0664,2.78125 c -0.28125,0.35156 -0.57813,0.6211 -0.88672,0.80078 -0.30469,0.17969 -0.625,0.26953 -0.95312,0.26953 -0.52344,0 -0.94141,-0.1875 -1.25391,-0.5664 -0.30859,-0.37891 -0.46484,-0.88672 -0.46484,-1.52735 0,-0.42578 0.0742,-0.80078 0.21875,-1.1289 0.14843,-0.32813 0.34375,-0.58203 0.59765,-0.76563 0.25391,-0.1875 0.64063,-0.32031 1.15235,-0.41015 0.6914,-0.1211 1.19921,-0.26563 1.52343,-0.4336 l 0.004,-0.32031 c 0,-0.5 -0.0742,-0.85547 -0.22266,-1.05469 -0.21093,-0.29687 -0.53906,-0.44531 -0.97265,-0.44531 -0.39844,0 -0.69532,0.0977 -0.89063,0.29688 -0.19531,0.19531 -0.33984,0.5664 -0.42969,1.10937 l -0.83593,-0.16797 c 0.11718,-0.78906 0.35937,-1.36328 0.72265,-1.72265 0.36328,-0.35938 0.88282,-0.53907 1.5586,-0.53907 0.52734,0 0.9414,0.1211 1.23828,0.35547 0.30078,0.23828 0.48828,0.53516 0.5664,0.88281 0.0781,0.35157 0.11719,0.86329 0.11719,1.53516 l 0,1.66016 c 0,1.16015 0.0195,1.89062 0.0586,2.19531 0.0351,0.30078 0.10546,0.59375 0.21484,0.88281 l -0.88672,0 c -0.0898,-0.2539 -0.14844,-0.55859 -0.17578,-0.90625"
       id="path85"
       inkscape:connector-curvature="0" />
    <path
       style="fill:#919191;fill-opacity:1;fill-rule:nonzero;stroke:none"
       d="m 666.74219,231.01953 -0.0899,-1.16797 c 0.1875,0.0742 0.34766,0.11328 0.48438,0.11328 0.17969,0 0.32812,-0.0469 0.44531,-0.13281 0.11719,-0.0898 0.21484,-0.22266 0.29297,-0.40625 0.0273,-0.0664 0.13672,-0.47266 0.33203,-1.22266 l -1.90625,-7.35156 0.91406,0 1.05078,4.25 c 0.12891,0.52735 0.25,1.09375 0.36329,1.69922 0.0937,-0.57031 0.21093,-1.12891 0.34375,-1.67187 l 1.07421,-4.27735 0.85157,0 -1.90235,7.46485 c -0.2539,0.96875 -0.44922,1.61718 -0.59375,1.9414 -0.14453,0.32422 -0.30859,0.5586 -0.48828,0.70313 -0.18359,0.14062 -0.39062,0.21093 -0.62109,0.21093 -0.16406,0 -0.34375,-0.0469 -0.55078,-0.15234"
       id="path87"
       inkscape:connector-curvature="0" />
    <path
       style="fill:#919191;fill-opacity:1;fill-rule:nonzero;stroke:none"
       d="m 671.30859,220.85156 0.84375,0 0,1.39063 c 0,0.60547 0.0274,1.05078 0.082,1.32812 0.0547,0.28125 0.17579,0.51172 0.36329,0.69922 0.1875,0.1875 0.41406,0.28125 0.67578,0.28125 0.32422,0 0.74609,-0.125 1.26172,-0.375 l 0,-3.32422 0.84375,0 0,7.34375 -0.84375,0 0,-2.96094 c -0.52735,0.23829 -1.01954,0.35938 -1.47266,0.35938 -0.49219,0 -0.91016,-0.23438 -1.25,-0.69922 -0.33594,-0.46875 -0.50391,-1.17578 -0.50391,-2.12109 z m 0,0"
       id="path89"
       inkscape:connector-curvature="0" />
    <path
       style="fill:#919191;fill-opacity:1;fill-rule:nonzero;stroke:none"
       d="m 676.66406,220.85156 0.84766,0 0,3.05469 2.36328,0 0,-3.05469 0.84766,0 0,7.34375 -0.84766,0 0,-3.25781 -2.36328,0 0,3.25781 -0.84766,0 z m 0,0"
       id="path91"
       inkscape:connector-curvature="0" />
    <path
       style="fill:#919191;fill-opacity:1;fill-rule:nonzero;stroke:none"
       d="m 686.95703,220.85156 0.84766,0 0,7.34375 -0.84766,0 z m -4.11328,6.32031 0.89062,0 c 0.64844,0 1.0625,-0.125 1.23829,-0.375 0.17968,-0.25 0.26562,-0.52734 0.26562,-0.82421 0,-0.39454 -0.10156,-0.69922 -0.30469,-0.91016 -0.20312,-0.21094 -0.5664,-0.32031 -1.08203,-0.32031 l -1.00781,0 z m -0.84766,-6.32031 0.84766,0 0,2.86719 1.07812,0 c 0.77735,0 1.33594,0.21875 1.67579,0.66016 0.33984,0.4375 0.51171,0.96484 0.51171,1.58984 0,0.58984 -0.15625,1.10547 -0.46484,1.55469 -0.30859,0.44531 -0.81641,0.66797 -1.52734,0.66797 l -2.1211,0 z m 0,0"
       id="path93"
       inkscape:connector-curvature="0" />
    <path
       style="fill:#919191;fill-opacity:1;fill-rule:nonzero;stroke:none"
       d="m 692.05469,218.07031 0.58203,0 c -0.0508,0.59766 -0.19922,1.04297 -0.44922,1.34375 -0.25,0.29688 -0.56641,0.44922 -0.94922,0.44922 -0.38672,0 -0.69922,-0.15234 -0.94922,-0.44922 -0.24609,-0.30078 -0.39844,-0.74609 -0.44531,-1.34375 l 0.58203,0 c 0.0859,0.625 0.35156,0.9336 0.78906,0.9336 0.2461,0 0.4336,-0.0742 0.57032,-0.21875 0.13281,-0.14844 0.22265,-0.38672 0.26953,-0.71485 m -2.85157,2.78125 0.84766,0 0,5.58594 2.36328,-5.58594 0.91406,0 0,7.34375 -0.84765,0 0,-5.55859 -2.35938,5.55859 -0.91797,0 z m 0,0"
       id="path95"
       inkscape:connector-curvature="0" />
    <path
       style="fill:#919191;fill-opacity:1;fill-rule:nonzero;stroke:none"
       d="m 697.39062,218.05859 0.91797,0 0,8.9375 3.60938,0 0,-8.9375 0.91797,0 0,8.9375 0.63281,0 0,4.01172 -0.8125,0 0,-2.8164 -5.26563,0 z m 0,0"
       id="path97"
       inkscape:connector-curvature="0" />
    <path
       style="fill:#919191;fill-opacity:1;fill-rule:nonzero;stroke:none"
       d="m 705.05859,223.81641 2.80078,0 c -0.0391,-0.63672 -0.15234,-1.10938 -0.33984,-1.42188 -0.27344,-0.45703 -0.62109,-0.6875 -1.04297,-0.6875 -0.3789,0 -0.70703,0.19141 -0.97265,0.57031 -0.26954,0.38282 -0.41797,0.89453 -0.44532,1.53907 m 2.79297,2.01171 0.87891,0.16016 c -0.14844,0.78516 -0.41016,1.375 -0.79297,1.77344 -0.38281,0.39844 -0.85547,0.59765 -1.42188,0.59765 -0.71093,0 -1.28515,-0.32421 -1.72265,-0.97265 -0.44141,-0.64844 -0.66016,-1.58203 -0.66016,-2.80078 0,-1.26953 0.21875,-2.23438 0.66406,-2.90235 0.44532,-0.66406 1.00391,-1 1.6836,-1 0.65234,0 1.1914,0.32813 1.625,0.98438 0.4375,0.65234 0.65234,1.60156 0.65234,2.83984 l -0.004,0.33203 -3.7461,0 c 0.0352,0.82422 0.19141,1.44922 0.47656,1.86719 0.28516,0.42188 0.62891,0.62891 1.03907,0.62891 0.63672,0 1.08203,-0.5 1.32812,-1.50782"
       id="path99"
       inkscape:connector-curvature="0" />
    <path
       style="fill:#919191;fill-opacity:1;fill-rule:nonzero;stroke:none"
       d="m 709.82031,220.85156 0.84375,0 0,3.05469 2.36328,0 0,-3.05469 0.84766,0 0,7.34375 -0.84766,0 0,-3.25781 -2.36328,0 0,3.25781 -0.84375,0 z m 0,0"
       id="path101"
       inkscape:connector-curvature="0" />
    <path
       style="fill:#919191;fill-opacity:1;fill-rule:nonzero;stroke:none"
       d="m 714.69922,220.85156 4.07422,0 0,1.02735 -1.61328,0 0,6.3164 -0.84766,0 0,-6.3164 -1.61328,0 z m 0,0"
       id="path103"
       inkscape:connector-curvature="0" />
    <path
       style="fill:#919191;fill-opacity:1;fill-rule:nonzero;stroke:none"
       d="m 720.35156,224.5625 c 0,0.94922 0.13281,1.64844 0.39844,2.10156 0.26172,0.44922 0.58203,0.67188 0.95703,0.67188 0.36328,0 0.67578,-0.23047 0.94922,-0.69922 0.27344,-0.46485 0.41016,-1.1836 0.41016,-2.15625 0,-0.95703 -0.13282,-1.66797 -0.39844,-2.12891 -0.26563,-0.46094 -0.58594,-0.6914 -0.96485,-0.6914 -0.33984,0 -0.65234,0.24609 -0.92968,0.74218 -0.28125,0.4961 -0.42188,1.21485 -0.42188,2.16016 m -0.77344,6.44531 0,-10.15625 0.78516,0 0,0.95313 c 0.19141,-0.39453 0.40625,-0.6836 0.63672,-0.85547 0.23437,-0.17578 0.50391,-0.26563 0.80469,-0.26563 0.39843,0 0.7539,0.14063 1.07031,0.42188 0.32031,0.28125 0.57422,0.71094 0.76953,1.28515 0.19141,0.57032 0.28906,1.26172 0.28906,2.07032 0,1.25 -0.21875,2.21093 -0.65234,2.88672 -0.4375,0.67578 -0.94922,1.01171 -1.53516,1.01171 -0.26172,0 -0.50781,-0.082 -0.73437,-0.24218 -0.22656,-0.16016 -0.42188,-0.38672 -0.58594,-0.6836 l 0,3.57422 z m 0,0"
       id="path105"
       inkscape:connector-curvature="0" />
    <path
       style="fill:#919191;fill-opacity:1;fill-rule:nonzero;stroke:none"
       d="m 572.16406,233.05859 0.91797,0 0,4.4375 c 0.42188,0 0.71484,-0.11718 0.88281,-0.35156 0.16797,-0.23437 0.38672,-0.80859 0.65235,-1.71484 0.20312,-0.70703 0.375,-1.20313 0.51172,-1.48828 0.13671,-0.28516 0.3164,-0.50782 0.54687,-0.66797 0.22656,-0.15625 0.53906,-0.23828 0.92578,-0.23828 0.10938,0 0.22266,0.008 0.33985,0.0234 l 0,1.16797 -0.1836,-0.008 -0.20703,-0.008 c -0.25,0 -0.44922,0.0859 -0.59375,0.26172 -0.14844,0.17187 -0.32422,0.63281 -0.53125,1.3789 -0.22656,0.83203 -0.41797,1.36719 -0.57812,1.60156 -0.16016,0.23047 -0.35547,0.41797 -0.58985,0.55469 0.44922,0.17969 0.89063,0.78516 1.32422,1.8125 l 1.42188,3.3711 -1.13282,0 -1.15625,-2.75 c -0.36718,-0.8711 -0.65625,-1.42188 -0.8789,-1.65235 -0.21875,-0.23047 -0.44141,-0.34765 -0.66407,-0.34765 -0.0273,0 -0.0547,0.004 -0.0898,0.008 l 0,4.74219 -0.91797,0 z m 0,0"
       id="path107"
       inkscape:connector-curvature="0" />
    <path
       style="fill:#919191;fill-opacity:1;fill-rule:nonzero;stroke:none"
       d="m 578.25391,239.51953 c 0,0.94922 0.14453,1.65625 0.43359,2.12109 0.28906,0.46485 0.64453,0.69532 1.07031,0.69532 0.39844,0 0.74219,-0.23438 1.02735,-0.70313 0.28906,-0.46875 0.42968,-1.17187 0.42968,-2.11328 0,-0.94531 -0.14453,-1.65234 -0.42968,-2.11719 -0.28907,-0.46093 -0.64454,-0.69531 -1.07032,-0.69531 -0.40625,0 -0.75,0.23438 -1.03515,0.69922 -0.28125,0.46875 -0.42578,1.17187 -0.42578,2.11328 m -0.86719,0.004 c 0,-1.26953 0.21875,-2.22657 0.66406,-2.8711 0.44141,-0.64453 1.00391,-0.96875 1.68359,-0.96875 0.66797,0 1.23047,0.32422 1.67969,0.96875 0.44922,0.64453 0.67188,1.57813 0.67188,2.79297 0,1.32031 -0.21875,2.30078 -0.66016,2.94531 -0.44531,0.64454 -1.00781,0.96875 -1.69141,0.96875 -0.67187,0 -1.23046,-0.32421 -1.67968,-0.97265 -0.44532,-0.64453 -0.66797,-1.60156 -0.66797,-2.86328"
       id="path109"
       inkscape:connector-curvature="0" />
    <path
       style="fill:#919191;fill-opacity:1;fill-rule:nonzero;stroke:none"
       d="m 583.69141,235.85156 3.95312,0 0,7.34375 -0.84766,0 0,-6.3164 -2.25781,0 0,3.66015 c 0,0.83203 -0.0156,1.39453 -0.0547,1.67969 -0.0352,0.28516 -0.14062,0.52734 -0.3164,0.72656 -0.17188,0.19922 -0.42188,0.29688 -0.74219,0.29688 -0.19922,0 -0.42187,-0.0156 -0.67187,-0.0469 l 0,-1.04687 c 0.39843,-0.004 0.63671,-0.0195 0.71093,-0.0469 0.0703,-0.0273 0.12891,-0.0977 0.16797,-0.21094 0.0391,-0.11328 0.0586,-0.51171 0.0586,-1.19921 z m 0,0"
       id="path111"
       inkscape:connector-curvature="0" />
    <path
       style="fill:#919191;fill-opacity:1;fill-rule:nonzero;stroke:none"
       d="m 589.73437,239.51953 c 0,0.94922 0.14063,1.65625 0.42969,2.12109 0.28906,0.46485 0.64453,0.69532 1.07422,0.69532 0.39844,0 0.73828,-0.23438 1.02734,-0.70313 0.28516,-0.46875 0.42969,-1.17187 0.42969,-2.11328 0,-0.94531 -0.14453,-1.65234 -0.43359,-2.11719 -0.28906,-0.46093 -0.64453,-0.69531 -1.07031,-0.69531 -0.40235,0 -0.75,0.23438 -1.03125,0.69922 -0.28516,0.46875 -0.42579,1.17187 -0.42579,2.11328 m -0.87109,0.004 c 0,-1.26953 0.22266,-2.22657 0.66406,-2.8711 0.44532,-0.64453 1.00782,-0.96875 1.6875,-0.96875 0.66797,0 1.22657,0.32422 1.67578,0.96875 0.44922,0.64453 0.67579,1.57813 0.67579,2.79297 0,1.32031 -0.22266,2.30078 -0.66407,2.94531 -0.4414,0.64454 -1.0039,0.96875 -1.6875,0.96875 -0.67187,0 -1.23437,-0.32421 -1.67968,-0.97265 -0.44922,-0.64453 -0.67188,-1.60156 -0.67188,-2.86328"
       id="path113"
       inkscape:connector-curvature="0" />
    <path
       style="fill:#919191;fill-opacity:1;fill-rule:nonzero;stroke:none"
       d="m 594.82031,235.85156 3.96094,0 0,7.34375 -0.84766,0 0,-6.3164 -2.26562,0 0,6.3164 -0.84766,0 z m 0,0"
       id="path115"
       inkscape:connector-curvature="0" />
    <path
       style="fill:#919191;fill-opacity:1;fill-rule:nonzero;stroke:none"
       d="m 601.04687,239.5625 c 0,0.94922 0.13282,1.64844 0.39844,2.10156 0.26172,0.44922 0.58203,0.67188 0.95703,0.67188 0.35938,0 0.67578,-0.23047 0.94922,-0.69922 0.27344,-0.46485 0.40625,-1.1836 0.40625,-2.15625 0,-0.95703 -0.1289,-1.66797 -0.39453,-2.12891 -0.26562,-0.46094 -0.58594,-0.6914 -0.96484,-0.6914 -0.34375,0 -0.65235,0.24609 -0.9336,0.74218 -0.27734,0.4961 -0.41797,1.21485 -0.41797,2.16016 m -0.77343,6.44531 0,-10.15625 0.78515,0 0,0.95313 c 0.19141,-0.39453 0.40235,-0.6836 0.63672,-0.85547 0.23438,-0.17578 0.50391,-0.26563 0.80469,-0.26563 0.39453,0 0.75391,0.14063 1.07031,0.42188 0.32031,0.28125 0.57422,0.71094 0.76953,1.28515 0.19141,0.57032 0.28907,1.26172 0.28907,2.07032 0,1.25 -0.21875,2.21093 -0.65235,2.88672 -0.4375,0.67578 -0.94922,1.01171 -1.53515,1.01171 -0.26172,0 -0.50782,-0.082 -0.73438,-0.24218 -0.22656,-0.16016 -0.42187,-0.38672 -0.58594,-0.6836 l 0,3.57422 z m 0,0"
       id="path117"
       inkscape:connector-curvature="0" />
    <path
       style="fill:#919191;fill-opacity:1;fill-rule:nonzero;stroke:none"
       d="m 606.47656,239.51953 c 0,0.94922 0.14453,1.65625 0.4336,2.12109 0.28906,0.46485 0.64453,0.69532 1.07031,0.69532 0.40234,0 0.74219,-0.23438 1.03125,-0.70313 0.28515,-0.46875 0.42578,-1.17187 0.42578,-2.11328 0,-0.94531 -0.14063,-1.65234 -0.42969,-2.11719 -0.28906,-0.46093 -0.64453,-0.69531 -1.07031,-0.69531 -0.40625,0 -0.75,0.23438 -1.03516,0.69922 -0.28125,0.46875 -0.42578,1.17187 -0.42578,2.11328 m -0.86719,0.004 c 0,-1.26953 0.22266,-2.22657 0.66407,-2.8711 0.44531,-0.64453 1.0039,-0.96875 1.6875,-0.96875 0.66797,0 1.22656,0.32422 1.67578,0.96875 0.44922,0.64453 0.67187,1.57813 0.67187,2.79297 0,1.32031 -0.21875,2.30078 -0.66015,2.94531 -0.44141,0.64454 -1.00391,0.96875 -1.6875,0.96875 -0.67578,0 -1.23438,-0.32421 -1.6836,-0.97265 -0.44531,-0.64453 -0.66797,-1.60156 -0.66797,-2.86328"
       id="path119"
       inkscape:connector-curvature="0" />
    <path
       style="fill:#919191;fill-opacity:1;fill-rule:nonzero;stroke:none"
       d="m 611.5625,235.85156 0.84375,0 0,3.17188 c 0.27344,0 0.46484,-0.0742 0.57422,-0.23047 0.10937,-0.15235 0.26953,-0.59766 0.48047,-1.32422 0.16797,-0.58594 0.30078,-0.97266 0.40625,-1.15625 0.10547,-0.1875 0.22656,-0.3125 0.35937,-0.37109 0.13281,-0.0625 0.36328,-0.0898 0.69531,-0.0898 l 0.125,0 0,1.02344 -0.2539,-0.008 c -0.1836,0 -0.3125,0.0391 -0.39063,0.12109 -0.0781,0.0781 -0.14062,0.22656 -0.19531,0.44531 -0.19141,0.73828 -0.34375,1.21875 -0.45703,1.42969 -0.10938,0.21484 -0.28906,0.40234 -0.53125,0.5625 0.36719,0.14453 0.72656,0.64063 1.08594,1.49219 l 0.93359,2.27734 -0.93359,0 -0.91407,-2.27344 c -0.18359,-0.46484 -0.34765,-0.76562 -0.48437,-0.90625 -0.14063,-0.14453 -0.30469,-0.21875 -0.5,-0.21875 l 0,3.39844 -0.84375,0 z m 0,0"
       id="path121"
       inkscape:connector-curvature="0" />
    <path
       style="fill:#919191;fill-opacity:1;fill-rule:nonzero;stroke:none"
       d="m 615.81641,235.85156 4.07031,0 0,1.02735 -1.60938,0 0,6.3164 -0.84765,0 0,-6.3164 -1.61328,0 z m 0,0"
       id="path123"
       inkscape:connector-curvature="0" />
    <path
       style="fill:#919191;fill-opacity:1;fill-rule:nonzero;stroke:none"
       d="m 621.42187,239.51953 c 0,0.94922 0.14454,1.65625 0.4336,2.12109 0.28906,0.46485 0.64453,0.69532 1.07031,0.69532 0.39844,0 0.74219,-0.23438 1.02734,-0.70313 0.28907,-0.46875 0.42969,-1.17187 0.42969,-2.11328 0,-0.94531 -0.14453,-1.65234 -0.42969,-2.11719 -0.28906,-0.46093 -0.64453,-0.69531 -1.07031,-0.69531 -0.40625,0 -0.75,0.23438 -1.03515,0.69922 -0.28125,0.46875 -0.42579,1.17187 -0.42579,2.11328 m -0.86718,0.004 c 0,-1.26953 0.21875,-2.22657 0.66406,-2.8711 0.44141,-0.64453 1.00391,-0.96875 1.68359,-0.96875 0.66797,0 1.23047,0.32422 1.67969,0.96875 0.44922,0.64453 0.67188,1.57813 0.67188,2.79297 0,1.32031 -0.21875,2.30078 -0.66016,2.94531 -0.44531,0.64454 -1.00391,0.96875 -1.69141,0.96875 -0.67187,0 -1.23047,-0.32421 -1.67968,-0.97265 -0.44532,-0.64453 -0.66797,-1.60156 -0.66797,-2.86328"
       id="path125"
       inkscape:connector-curvature="0" />
    <path
       style="fill:#919191;fill-opacity:1;fill-rule:nonzero;stroke:none"
       d="m 626.85937,235.85156 3.94922,0 0,7.34375 -0.84375,0 0,-6.3164 -2.25781,0 0,3.66015 c 0,0.83203 -0.0195,1.39453 -0.0547,1.67969 -0.0391,0.28516 -0.14453,0.52734 -0.3164,0.72656 -0.17578,0.19922 -0.42188,0.29688 -0.7461,0.29688 -0.19922,0 -0.42187,-0.0156 -0.67187,-0.0469 l 0,-1.04687 c 0.40234,-0.004 0.63672,-0.0195 0.71094,-0.0469 0.0703,-0.0273 0.1289,-0.0977 0.16796,-0.21094 0.0391,-0.11328 0.0625,-0.51171 0.0625,-1.19921 z m 0,0"
       id="path127"
       inkscape:connector-curvature="0" />
    <path
       style="fill:#919191;fill-opacity:1;fill-rule:nonzero;stroke:none"
       d="m 632.89844,239.51953 c 0,0.94922 0.14453,1.65625 0.42968,2.12109 0.28907,0.46485 0.64844,0.69532 1.07422,0.69532 0.39844,0 0.74219,-0.23438 1.02735,-0.70313 0.28515,-0.46875 0.42968,-1.17187 0.42968,-2.11328 0,-0.94531 -0.14453,-1.65234 -0.43359,-2.11719 -0.28516,-0.46093 -0.64453,-0.69531 -1.07031,-0.69531 -0.40235,0 -0.7461,0.23438 -1.03125,0.69922 -0.28516,0.46875 -0.42578,1.17187 -0.42578,2.11328 m -0.8711,0.004 c 0,-1.26953 0.22266,-2.22657 0.66407,-2.8711 0.44531,-0.64453 1.00781,-0.96875 1.6875,-0.96875 0.66796,0 1.22656,0.32422 1.67578,0.96875 0.44922,0.64453 0.67578,1.57813 0.67578,2.79297 0,1.32031 -0.22266,2.30078 -0.66406,2.94531 -0.44141,0.64454 -1.00391,0.96875 -1.6875,0.96875 -0.67188,0 -1.23047,-0.32421 -1.67969,-0.97265 -0.44531,-0.64453 -0.67188,-1.60156 -0.67188,-2.86328"
       id="path129"
       inkscape:connector-curvature="0" />
    <path
       style="fill:#919191;fill-opacity:1;fill-rule:nonzero;stroke:none"
       d="m 637.98828,235.85156 2.88281,0 0,1.02735 -2.03906,0 0,6.3164 -0.84375,0 z m 0,0"
       id="path131"
       inkscape:connector-curvature="0" />
    <path
       style="fill:#919191;fill-opacity:1;fill-rule:nonzero;stroke:none"
       d="m 641.81641,235.85156 0.84765,0 0,5.58594 2.35938,-5.58594 0.91797,0 0,7.34375 -0.84766,0 0,-5.55859 -2.36328,5.55859 -0.91406,0 z m 0,0"
       id="path133"
       inkscape:connector-curvature="0" />
    <path
       style="fill:#919191;fill-opacity:1;fill-rule:nonzero;stroke:none"
       d="m 647.44141,235.85156 0.84765,0 0,5.58594 2.35938,-5.58594 0.91797,0 0,7.34375 -0.84766,0 0,-5.55859 -2.36328,5.55859 -0.91406,0 z m 0,0"
       id="path135"
       inkscape:connector-curvature="0" />
    <path
       style="fill:#919191;fill-opacity:1;fill-rule:nonzero;stroke:none"
       d="m 655.87109,235.85156 0.84766,0 0,5.58594 2.36328,-5.58594 0.91406,0 0,7.34375 -0.84375,0 0,-5.55859 -2.36328,5.55859 -0.91797,0 z m 0,0"
       id="path137"
       inkscape:connector-curvature="0" />
    <path
       style="fill:#919191;fill-opacity:1;fill-rule:nonzero;stroke:none"
       d="m 661.50781,235.85156 1.32422,0 1.32422,5.875 1.46484,-5.875 1.22266,0 0,7.34375 -0.84766,0 0,-5.91406 -1.48828,5.91406 -0.76172,0 -1.40625,-6.19531 0,6.19531 -0.83203,0 z m 0,0"
       id="path139"
       inkscape:connector-curvature="0" />
    <path
       style="fill:#919191;fill-opacity:1;fill-rule:nonzero;stroke:none"
       d="m 668.39453,241.77734 0.96484,0 0,1.41407 -0.96484,0 z m 0,0"
       id="path141"
       inkscape:connector-curvature="0" />
    <path
       style="fill:#919191;fill-opacity:1;fill-rule:nonzero;stroke:none"
       d="m 675.1875,239.03125 2.35937,0 -0.71875,-2.80859 c -0.22265,-0.85938 -0.38671,-1.5625 -0.49218,-2.10157 -0.0859,0.65235 -0.21485,1.29688 -0.37891,1.9375 z m -1.98828,4.16016 2.67187,-10.13282 0.98047,0 2.83594,10.13282 -1.04688,0 -0.80859,-3.06641 -2.91406,0 -0.75,3.06641 z m 0,0"
       id="path143"
       inkscape:connector-curvature="0" />
    <path
       style="fill:#919191;fill-opacity:1;fill-rule:nonzero;stroke:none"
       d="m 680.74609,241.77734 0.96875,0 0,1.41407 -0.96875,0 z m 0,0"
       id="path145"
       inkscape:connector-curvature="0" />
    <path
       style="fill:#919191;fill-opacity:1;fill-rule:nonzero;stroke:none"
       d="m 683.27344,243.19531 0,-10.13672 0.91797,0 0,4.16016 3.59765,0 0,-4.16016 0.91797,0 0,10.13672 -0.91797,0 0,-4.78125 -3.59765,0 0,4.78125 z m 0,0"
       id="path147"
       inkscape:connector-curvature="0" />
    <path
       style="fill:#919191;fill-opacity:1;fill-rule:nonzero;stroke:none"
       d="m 690.32812,241.77734 0.96875,0 0,1.41407 -0.96875,0 z m 0,0"
       id="path149"
       inkscape:connector-curvature="0" />
    <path
       style="fill:#919191;fill-opacity:1;fill-rule:nonzero;stroke:none"
       d="m 693.77344,237.875 1.79297,0 c 0.5625,0 0.97656,-0.15234 1.23828,-0.45703 0.26172,-0.3086 0.39062,-0.76953 0.39062,-1.38672 0,-0.40234 -0.0625,-0.74609 -0.1914,-1.03125 -0.12891,-0.28516 -0.28516,-0.48047 -0.46875,-0.58594 -0.17969,-0.10937 -0.51172,-0.16015 -0.98829,-0.16015 l -1.77343,0 z m -0.91797,5.32031 0,-10.13672 2.61328,0 c 0.61328,0 1.06641,0.0625 1.35937,0.19141 0.39844,0.17578 0.71875,0.5 0.95313,0.97656 0.24219,0.47266 0.35937,1.0586 0.35937,1.75 0,0.91016 -0.19531,1.65625 -0.58203,2.23047 -0.38672,0.57813 -1.05859,0.86719 -2.01172,0.86719 l -1.77343,0 0,4.12109 z m 0,0"
       id="path151"
       inkscape:connector-curvature="0" />
    <path
       style="fill:#919191;fill-opacity:1;fill-rule:nonzero;stroke:none"
       d="m 704.25,235.85156 0.84766,0 0,7.34375 -0.84766,0 z m -4.11328,6.32031 0.89453,0 c 0.64844,0 1.0625,-0.125 1.23828,-0.375 0.17578,-0.25 0.26563,-0.52734 0.26563,-0.82421 0,-0.39454 -0.10157,-0.69922 -0.3086,-0.91016 -0.20312,-0.21094 -0.5625,-0.32031 -1.08203,-0.32031 l -1.00781,0 z m -0.84766,-6.32031 0.84766,0 0,2.86719 1.08203,0 c 0.77344,0 1.33203,0.21875 1.67187,0.66016 0.34375,0.4375 0.51172,0.96484 0.51172,1.58984 0,0.58984 -0.15234,1.10547 -0.46093,1.55469 -0.3086,0.44531 -0.82032,0.66797 -1.52735,0.66797 l -2.125,0 z m 0,0"
       id="path153"
       inkscape:connector-curvature="0" />
    <path
       style="fill:#919191;fill-opacity:1;fill-rule:nonzero;stroke:none"
       d="m 709.78906,235.85156 0,3.17188 c 0.26563,0 0.45703,-0.0742 0.56641,-0.22657 0.10937,-0.15234 0.26953,-0.59375 0.48047,-1.32812 0.17187,-0.58594 0.30859,-0.97266 0.41406,-1.15625 0.10547,-0.1875 0.22266,-0.3125 0.35547,-0.37109 0.1289,-0.0625 0.35937,-0.0898 0.6875,-0.0898 l 0.1289,0 0,1.02735 -0.2539,-0.004 c -0.16797,0 -0.29297,0.0352 -0.3711,0.10156 -0.082,0.0703 -0.15234,0.22266 -0.21093,0.45703 -0.19141,0.74219 -0.34375,1.21875 -0.45703,1.4336 -0.10938,0.21093 -0.28516,0.39843 -0.53125,0.55859 0.37109,0.14453 0.73046,0.64063 1.07812,1.49219 l 0.93359,2.27734 -0.93359,0 -0.91016,-2.27344 c -0.1875,-0.46875 -0.35156,-0.76953 -0.49218,-0.91406 -0.14063,-0.13672 -0.30078,-0.21094 -0.48438,-0.21094 l 0,3.39844 -0.87109,0 0,-3.39844 c -0.1875,0 -0.35156,0.0703 -0.48828,0.20704 -0.13672,0.13671 -0.30078,0.4414 -0.49219,0.91796 l -0.91016,2.27344 -0.93359,0 0.92969,-2.27734 c 0.35547,-0.85547 0.71484,-1.35547 1.07812,-1.49219 -0.23437,-0.15625 -0.40625,-0.33203 -0.51562,-0.52734 -0.10938,-0.19141 -0.26563,-0.67969 -0.46875,-1.46485 -0.0586,-0.23047 -0.125,-0.38281 -0.20313,-0.45312 -0.0781,-0.0703 -0.20312,-0.10547 -0.375,-0.10547 l -0.2539,0.004 0,-1.02735 0.125,0 c 0.33984,0 0.58203,0.0352 0.72265,0.10938 0.14063,0.0742 0.26172,0.21093 0.35938,0.41015 0.0976,0.20313 0.25,0.66797 0.46093,1.39453 0.16016,0.5586 0.29297,0.90625 0.40235,1.04688 0.10547,0.14062 0.29297,0.21094 0.5625,0.21094 l 0,-3.17188 z m 0,0"
       id="path155"
       inkscape:connector-curvature="0" />
    <path
       style="fill:#919191;fill-opacity:1;fill-rule:nonzero;stroke:none"
       d="m 713.53516,235.85156 0.84765,0 0,5.58594 2.36328,-5.58594 0.91407,0 0,7.34375 -0.84766,0 0,-5.55859 -2.35938,5.55859 -0.91796,0 z m 0,0"
       id="path157"
       inkscape:connector-curvature="0" />
    <path
       style="fill:#919191;fill-opacity:1;fill-rule:nonzero;stroke:none"
       d="m 718.64453,243.19531 1.82813,-3.8164 -1.6836,-3.52735 1.0625,0 0.76172,1.71875 c 0.14063,0.31641 0.25781,0.58985 0.35156,0.82422 0.14453,-0.30859 0.27344,-0.57422 0.38672,-0.80078 l 0.84375,-1.74219 1.01172,0 -1.73047,3.44531 1.86328,3.89844 -1.04297,0 -1.03125,-2.28515 -0.26953,-0.61719 -1.32031,2.90234 z m 0,0"
       id="path159"
       inkscape:connector-curvature="0" />
  </g>
</svg>
